Lab 13
…
# Shannon diversity and Pielou's evenness
shannon <- diversity(abund, index = "shannon")
richness <- specnumber(abund)
evenness <- shannon / log(richness)

alpha_results <- tibble(
  site_ID = comm_matrix$site_ID,
  richness = richness,
  shannon = shannon,
  evenness = evenness
)

alpha_results

# A tibble: 28 × 4
   site_ID richness shannon evenness
   <chr>      <int>   <dbl>    <dbl>
 1 BONA         256    5.55        1
 2 CLBJ         276    5.62        1
 3 CPER         122    4.80        1
 4 DCFS         258    5.55        1
 5 DEJU         474    6.16        1
 6 DSNY         116    4.75        1
 7 GUAN         154    5.04        1
 8 HARV         253    5.53        1
 9 KONZ         208    5.34        1
10 LENO         167    5.12        1
# ℹ 18 more rows
…
